v -1.00000000 -1.00000000 0.00000000
v 1.00000000 -1.00000000 0.00000000
v -1.00000000 1.00000000 0.00000000
v 1.00000000 1.00000000 0.00000000
vn -0.00000000 0.00000000 1.00000000
vt 0 0 0
usemtl 0
f 2/1/1 3/1/1 1/1/1
f 2/1/1 4/1/1 3/1/1
